hw4
…
## # A tibble: 6 x 5
## # Groups:   Chick [1]
##   weight  Time Chick Diet  weightgain
##    <dbl> <dbl> <ord> <fct>      <dbl>
## 1     42     0 1     1              0
## 2     51     2 1     1              9
## 3     59     4 1     1              8
## 4     64     6 1     1              5
## 5     76     8 1     1             12
## 6     93    10 1     1             17

complete

## # A tibble: 540 x 5
## # Groups:   Chick [45]
##    weight  Time Chick Diet  weightgain
##     <dbl> <dbl> <ord> <fct>      <dbl>
##  1     42     0 1     1              0
##  2     51     2 1     1              9
##  3     59     4 1     1              8
##  4     64     6 1     1              5
##  5     76     8 1     1             12
##  6     93    10 1     1             17
##  7    106    12 1     1             13
##  8    125    14 1     1             19
##  9    149    16 1     1             24
## 10    171    18 1     1             22
## #  with 530 more rows
…
